task4/delay.vcd
$version Generated by VerilatedVcd $end
$timescale 1ps $end

 $scope module TOP $end
  $var wire  1 , clk $end
  $var wire  8 0 dout [7:0] $end
  $var wire 16 / n [15:0] $end
  $var wire  1 - rst $end
  $var wire  1 1 time_out $end
  $var wire  1 . trigger $end
  $scope module top $end
   $var wire 32 5 WIDTH [31:0] $end
   $var wire  1 , clk $end
   $var wire  1 * cmd_delay $end
   $var wire  1 ) cmd_seq $end
   $var wire  8 0 dout [7:0] $end
   $var wire  7 % k [6:0] $end
   $var wire  1 $ mux0 $end
   $var wire  1 # mux1 $end
   $var wire  1 2 muxo $end
   $var wire 16 / n [15:0] $end
   $var wire  1 - rst $end
   $var wire  1 1 time_out $end
   $var wire  1 . trigger $end
   $scope module clktick $end
    $var wire 16 / N [15:0] $end
    $var wire 32 5 WIDTH [31:0] $end
    $var wire  1 , clk $end
    $var wire 16 & count [15:0] $end
    $var wire  1 ) en $end
    $var wire  1 - rst $end
    $var wire  1 # tick $end
   $upscope $end
   $scope module delay $end
    $var wire 32 6 WIDTH [31:0] $end
    $var wire  1 , clk $end
    $var wire  7 ' count [6:0] $end
    $var wire 32 ( current_state [31:0] $end
    $var wire  7 % n [6:0] $end
    $var wire 32 3 next_state [31:0] $end
    $var wire  1 - rst $end
    $var wire  1 $ time_out $end
    $var wire  1 * trigger $end
   $upscope $end
   $scope module fsm $end
    $var wire  1 , clk $end
    $var wire  1 * cmd_delay $end
    $var wire  1 ) cmd_seq $end
    $var wire 32 + cstate [31:0] $end
    $var wire  8 0 dout [7:0] $end
    $var wire  1 2 en $end
    $var wire 32 4 nstate [31:0] $end
    $var wire  1 - rst $end
    $var wire  1 . trigger $end
   $upscope $end
   $scope module lfsr $end
    $var wire  1 , clk $end
    $var wire  7 % dout [6:0] $end
    $var wire  1 - rst $end
    $var wire  7 % sreg [6:0] $end
   $upscope $end
  $upscope $end
 $upscope $end
$enddefinitions $end


#0
0#
0$
b0000000 %
b0000000000000000 &
b0000000 '
b00000000000000000000000000000000 (
0)
0*
b00000000000000000000000000000000 +
1,
0-
0.
b0000000000000001 /
b00000000 0
01
02
b00000000000000000000000000000000 3
b00000000000000000000000000000000 4
b00000000000000000000000000010000 5
b00000000000000000000000000000111 6
#1
b0000001 %
0,
#2
b0000010 %
1,
1-
#3
0,
#4
b0000001 %
b0000000000000001 &
b0000001 '
1,
#5
0,
#6
b0000000 '
1,
0-
#7
0,
#8
b0000010 %
1,
#9
0,
#10
b0000100 %
b0000001 '
1,
#11
0,
#12
b0001001 %
b0000000 '
1,
#13
0,
#14
b0010010 %
b0001000 '
1,
#15
0,
#16
b0100100 %
b0000111 '
1,
#17
0,
#18
b1001001 %
b0000110 '
1,
#19
0,
#20
b0010011 %
b0000101 '
1,
#21
0,
#22
b0100110 %
b0000100 '
1,
#23
0,
#24
b1001101 %
b0000011 '
1,
#25
0,
#26
b0011010 %
b0000010 '
1,
#27
0,
#28
b0110100 %
b0000001 '
1,
#29
0,
#30
b1101001 %
b0000000 '
1,
#31
0,
#32
b1010011 %
b1101000 '
1,
#33
0,
#34
b0100111 %
b1100111 '
1,
#35
0,
#36
b1001111 %
b1100110 '
1,
#37
0,
#38
b0011110 %
b1100101 '
1,
#39
0,
#40
b0111101 %
b1100100 '
1,
#41
0,
#42
b1111011 %
b1100011 '
1,
#43
0,
#44
b1110111 %
b1100010 '
1,
#45
0,
#46
b1101110 %
b1100001 '
1,
#47
0,
#48
b1011100 %
b1100000 '
1,
#49
0,
#50
b0111000 %
b1011111 '
1,
#51
0,
#52
b1110000 %
b1011110 '
1,
#53
0,
#54
b1100001 %
b1011101 '
1,
#55
0,
#56
b1000011 %
b1011100 '
1,
#57
0,
#58
b0000111 %
b1011011 '
1,
#59
0,
#60
b0001111 %
b1011010 '
1,
#61
0,
#62
b0011111 %
b1011001 '
1,
#63
0,
#64
b0111111 %
b1011000 '
1,
#65
0,
#66
b1111111 %
b1010111 '
1,
#67
0,
#68
b1111110 %
b1010110 '
1,
#69
0,
#70
b1111100 %
b1010101 '
1,
#71
0,
#72
b1111000 %
b1010100 '
1,
#73
0,
#74
b1110001 %
b1010011 '
1,
#75
0,
#76
b1100011 %
b1010010 '
1,
#77
0,
#78
b1000111 %
b1010001 '
1,
#79
0,
#80
b0001110 %
b1010000 '
1,
#81
0,
#82
b0011101 %
b1001111 '
1,
#83
0,
#84
b0111011 %
b1001110 '
1,
#85
0,
#86
b1110110 %
b1001101 '
1,
#87
0,
#88
b1101100 %
b1001100 '
1,
#89
0,
#90
b1011000 %
b1001011 '
1,
#91
0,
#92
b0110001 %
b1001010 '
1,
#93
0,
#94
b1100010 %
b1001001 '
1,
#95
0,
#96
b1000101 %
b1001000 '
1,
#97
0,
#98
b0001010 %
b1000111 '
1,
#99
0,
#100
b0010100 %
b1000110 '
1,
#101
0,
#102
b0101001 %
b1000101 '
1,
#103
0,
#104
b1010010 %
b1000100 '
1,
#105
0,
#106
b0100101 %
b1000011 '
1,
#107
0,
#108
b1001011 %
b1000010 '
1,
#109
0,
#110
b0010111 %
b1000001 '
1,
#111
0,
#112
b0101111 %
b1000000 '
1,
#113
0,
#114
b1011111 %
b0111111 '
1,
#115
0,
#116
b0111110 %
b0111110 '
1,
#117
0,
#118
b1111101 %
b0111101 '
1,
#119
0,
#120
b1111010 %
b0111100 '
1,
#121
0,
#122
b1110101 %
b0111011 '
1,
#123
0,
#124
b1101010 %
b0111010 '
1,
#125
0,
#126
b1010101 %
b0111001 '
1,
#127
0,
#128
b0101010 %
b0111000 '
1,
#129
0,
#130
b1010100 %
b0110111 '
1,
#131
0,
#132
b0101000 %
b0110110 '
1,
#133
0,
#134
b1010000 %
b0110101 '
1,
#135
0,
#136
b0100001 %
b0110100 '
1,
#137
0,
#138
b1000010 %
b0110011 '
1,
#139
0,
#140
b0000101 %
b0110010 '
1,
#141
0,
#142
b0001011 %
b0110001 '
1,
#143
0,
#144
b0010110 %
b0110000 '
1,
#145
0,
#146
b0101101 %
b0101111 '
1,
#147
0,
#148
b1011011 %
b0101110 '
1,
#149
0,
#150
b0110111 %
b0101101 '
1,
#151
0,
#152
b1101111 %
b0101100 '
1,
#153
0,
#154
b1011110 %
b0101011 '
1,
#155
0,
#156
b0111100 %
b0101010 '
1,
#157
0,
#158
b1111001 %
b0101001 '
1,
#159
0,
#160
b1110011 %
b0101000 '
1,
#161
0,
#162
b1100111 %
b0100111 '
1,
#163
0,
#164
b1001110 %
b0100110 '
1,
#165
0,
#166
b0011100 %
b0100101 '
1,
#167
0,
#168
b0111001 %
b0100100 '
1,
#169
0,
#170
b1110010 %
b0100011 '
1,
#171
0,
#172
b1100101 %
b0100010 '
1,
#173
0,
#174
b1001010 %
b0100001 '
1,
#175
0,
#176
b0010101 %
b0100000 '
1,
#177
0,
#178
b0101011 %
b0011111 '
1,
#179
0,
#180
b1010110 %
b0011110 '
1,
#181
0,
#182
b0101100 %
b0011101 '
1,
#183
0,
#184
b1011001 %
b0011100 '
1,
#185
0,
#186
b0110011 %
b0011011 '
1,
1.
#187
0,
b00000000000000000000000000000001 4
#188
b1100110 %
b0011010 '
1)
b00000000000000000000000000000001 +
1,
0.
b00000001 0
#189
0,
#190
b1001100 %
b0000000000000000 &
b0011001 '
1,
#191
0,
#192
1#
b0011000 %
b0000000000000001 &
b0011000 '
1,
12
b00000000000000000000000000000010 4
#193
0,
#194
0#
b0110000 %
b0000000000000000 &
b0010111 '
b00000000000000000000000000000010 +
1,
b00000011 0
02
#195
0,
#196
1#
b1100000 %
b0000000000000001 &
b0010110 '
1,
12
b00000000000000000000000000000011 4
#197
0,
#198
0#
b1000001 %
b0000000000000000 &
b0010101 '
b00000000000000000000000000000011 +
1,
b00000111 0
02
#199
0,
#200
1#
b0000011 %
b0000000000000001 &
b0010100 '
1,
12
b00000000000000000000000000000100 4
#201
0,
#202
0#
b0000110 %
b0000000000000000 &
b0010011 '
b00000000000000000000000000000100 +
1,
b00001111 0
02
#203
0,
#204
1#
b0001101 %
b0000000000000001 &
b0010010 '
1,
12
b00000000000000000000000000000101 4
#205
0,
#206
0#
b0011011 %
b0000000000000000 &
b0010001 '
b00000000000000000000000000000101 +
1,
b00011111 0
02
#207
0,
#208
1#
b0110110 %
b0000000000000001 &
b0010000 '
1,
12
b00000000000000000000000000000110 4
#209
0,
#210
0#
b1101101 %
b0000000000000000 &
b0001111 '
b00000000000000000000000000000110 +
1,
b00111111 0
02
#211
0,
#212
1#
b1011010 %
b0000000000000001 &
b0001110 '
1,
12
b00000000000000000000000000000111 4
#213
0,
#214
0#
b0110101 %
b0000000000000000 &
b0001101 '
b00000000000000000000000000000111 +
1,
b01111111 0
02
#215
0,
#216
1#
b1101011 %
b0000000000000001 &
b0001100 '
1,
12
b00000000000000000000000000001000 4
#217
0,
#218
0#
b1010111 %
b0000000000000000 &
b0001011 '
b00000000000000000000000000001000 +
1,
b11111111 0
02
#219
0,
#220
1#
b0101110 %
b0000000000000001 &
b0001010 '
1,
12
b00000000000000000000000000001001 4
#221
0,
#222
0#
b1011101 %
b0000000000000000 &
b0001001 '
0)
1*
b00000000000000000000000000001001 +
1,
02
b00000000000000000000000000000001 3
#223
0,
#224
b0111010 %
b1011100 '
b00000000000000000000000000000001 (
1,
#225
0,
#226
b1110100 %
b0111001 '
1,
#227
0,
#228
b1101000 %
b1110011 '
1,
#229
0,
#230
b1010001 %
b1100111 '
1,
#231
0,
#232
b0100011 %
b1010000 '
1,
#233
0,
#234
b1000110 %
b0100010 '
1,
#235
0,
#236
b0001100 %
b1000101 '
1,
#237
0,
#238
b0011001 %
b0001011 '
1,
#239
0,
#240
b0110010 %
b0011000 '
1,
#241
0,
#242
b1100100 %
b0110001 '
1,
#243
0,
#244
b1001000 %
b1100011 '
1,
#245
0,
#246
b0010001 %
b1000111 '
1,
#247
0,
#248
b0100010 %
b0010000 '
1,
#249
0,
#250
b1000100 %
b0100001 '
1,
#251
0,
#252
b0001000 %
b1000011 '
1,
#253
0,
#254
b0010000 %
b0000111 '
1,
#255
0,
#256
b0100000 %
b0001111 '
1,
#257
0,
#258
b1000000 %
b0011111 '
1,
#259
0,
#260
b0000001 %
b0111111 '
1,
#261
0,
#262
b0000010 %
b0000000 '
1,
b00000000000000000000000000000010 3
#263
0,
#264
1$
b0000100 %
b0000001 '
b00000000000000000000000000000010 (
1,
11
12
b00000000000000000000000000000011 3
b00000000000000000000000000001010 4
#265
0,
#266
0$
b0001001 %
b0000011 '
b00000000000000000000000000000011 (
0*
b00000000000000000000000000001010 +
1,
b00000000 0
01
02
b00000000000000000000000000000000 3
#267
0,
#268
b0010010 %
b0000010 '
b00000000000000000000000000000000 (
1,
#269
0,
#270
b0100100 %
b0000001 '
1,
#271
0,
#272
b1001001 %
b0000000 '
1,
#273
0,
#274
b0010011 %
b1001000 '
1,
#275
0,
#276
b0100110 %
b1000111 '
1,
#277
0,
#278
b1001101 %
b1000110 '
1,
#279
0,
#280
b0011010 %
b1000101 '
1,
#281
0,
#282
b0110100 %
b1000100 '
1,
#283
0,
#284
b1101001 %
b1000011 '
1,
#285
0,
#286
b1010011 %
b1000010 '
1,
#287
0,
#288
b0100111 %
b1000001 '
1,
#289
0,
#290
b1001111 %
b1000000 '
1,
#291
0,
#292
b0011110 %
b0111111 '
1,
#293
0,
#294
b0111101 %
b0111110 '
1,
#295
0,
#296
b1111011 %
b0111101 '
1,
1.
#297
0,
b00000000000000000000000000001011 4
#298
b1110111 %
b0111100 '
b00000000000000000000000000001011 +
1,
0.
b00000000000000000000000000000000 4
#299
0,
#300
b1101110 %
b0111011 '
b00000000000000000000000000000000 +
1,
#301
0,
#302
b1011100 %
b0111010 '
1,
#303
0,
#304
b0111000 %
b0111001 '
1,
#305
0,
#306
b1110000 %
b0111000 '
1,
#307
0,
#308
b1100001 %
b0110111 '
1,
#309
0,
#310
b1000011 %
b0110110 '
1,
#311
0,
#312
b0000111 %
b0110101 '
1,
#313
0,
#314
b0001111 %
b0110100 '
1,
#315
0,
#316
b0011111 %
b0110011 '
1,
#317
0,
#318
b0111111 %
b0110010 '
1,
#319
0,
#320
b1111111 %
b0110001 '
1,
#321
0,
#322
b1111110 %
b0110000 '
1,
#323
0,
#324
b1111100 %
b0101111 '
1,
#325
0,
#326
b1111000 %
b0101110 '
1,
#327
0,
#328
b1110001 %
b0101101 '
1,
#329
0,
#330
b1100011 %
b0101100 '
1,
#331
0,
#332
b1000111 %
b0101011 '
1,
#333
0,
#334
b0001110 %
b0101010 '
1,
#335
0,
#336
b0011101 %
b0101001 '
1,
#337
0,
#338
b0111011 %
b0101000 '
1,
#339
0,
#340
b1110110 %
b0100111 '
1,
#341
0,
#342
b1101100 %
b0100110 '
1,
#343
0,
#344
b1011000 %
b0100101 '
1,
#345
0,
#346
b0110001 %
b0100100 '
1,
#347
0,
#348
b1100010 %
b0100011 '
1,
#349
0,
#350
b1000101 %
b0100010 '
1,
#351
0,
#352
b0001010 %
b0100001 '
1,
#353
0,
#354
b0010100 %
b0100000 '
1,
#355
0,
#356
b0101001 %
b0011111 '
1,
#357
0,
#358
b1010010 %
b0011110 '
1,
#359
0,
#360
b0100101 %
b0011101 '
1,
#361
0,
#362
b1001011 %
b0011100 '
1,
#363
0,
#364
b0010111 %
b0011011 '
1,
#365
0,
#366
b0101111 %
b0011010 '
1,
#367
0,
#368
b1011111 %
b0011001 '
1,
#369
0,
#370
b0111110 %
b0011000 '
1,
#371
0,
#372
b1111101 %
b0010111 '
1,
#373
0,
#374
b1111010 %
b0010110 '
1,
#375
0,
#376
b1110101 %
b0010101 '
1,
#377
0,
#378
b1101010 %
b0010100 '
1,
#379
0,
#380
b1010101 %
b0010011 '
1,
#381
0,
#382
b0101010 %
b0010010 '
1,
#383
0,
#384
b1010100 %
b0010001 '
1,
#385
0,
#386
b0101000 %
b0010000 '
1,
#387
0,
#388
b1010000 %
b0001111 '
1,
#389
0,
#390
b0100001 %
b0001110 '
1,
#391
0,
#392
b1000010 %
b0001101 '
1,
#393
0,
#394
b0000101 %
b0001100 '
1,
#395
0,
#396
b0001011 %
b0001011 '
1,
#397
0,
#398
b0010110 %
b0001010 '
1,
#399
0,
#400
b0101101 %
b0001001 '
1,
#401
0,
#402
b1011011 %
b0001000 '
1,
#403
0,
#404
b0110111 %
b0000111 '
1,
#405
0,
#406
b1101111 %
b0000110 '
1,
#407
0,
#408
b1011110 %
b0000101 '
1,
#409
0,
#410
b0111100 %
b0000100 '
1,
#411
0,
#412
b1111001 %
b0000011 '
1,
#413
0,
#414
b1110011 %
b0000010 '
1,
#415
0,
#416
b1100111 %
b0000001 '
1,
#417
0,
#418
b1001110 %
b0000000 '
1,
#419
0,
#420
b0011100 %
b1001101 '
1,
#421
0,
#422
b0111001 %
b1001100 '
1,
#423
0,
#424
b1110010 %
b1001011 '
1,
#425
0,
#426
b1100101 %
b1001010 '
1,
#427
0,
#428
b1001010 %
b1001001 '
1,
#429
0,
#430
b0010101 %
b1001000 '
1,
#431
0,
#432
b0101011 %
b1000111 '
1,
#433
0,
#434
b1010110 %
b1000110 '
1,
#435
0,
#436
b0101100 %
b1000101 '
1,
#437
0,
#438
b1011001 %
b1000100 '
1,
#439
0,
#440
b0110011 %
b1000011 '
1,
#441
0,
#442
b1100110 %
b1000010 '
1,
#443
0,
#444
b1001100 %
b1000001 '
1,
#445
0,
#446
b0011000 %
b1000000 '
1,
#447
0,
#448
b0110000 %
b0111111 '
1,
#449
0,
#450
b1100000 %
b0111110 '
1,
#451
0,
#452
b1000001 %
b0111101 '
1,
#453
0,
#454
b0000011 %
b0111100 '
1,
#455
0,
#456
b0000110 %
b0111011 '
1,
#457
0,
#458
b0001101 %
b0111010 '
1,
#459
0,
#460
b0011011 %
b0111001 '
1,
#461
0,
#462
b0110110 %
b0111000 '
1,
#463
0,
#464
b1101101 %
b0110111 '
1,
#465
0,
#466
b1011010 %
b0110110 '
1,
#467
0,
#468
b0110101 %
b0110101 '
1,
#469
0,
#470
b1101011 %
b0110100 '
1,
#471
0,
#472
b1010111 %
b0110011 '
1,
#473
0,
#474
b0101110 %
b0110010 '
1,
#475
0,
#476
b1011101 %
b0110001 '
1,
#477
0,
#478
b0111010 %
b0110000 '
1,
#479
0,
#480
b1110100 %
b0101111 '
1,
#481
0,
#482
b1101000 %
b0101110 '
1,
#483
0,
#484
b1010001 %
b0101101 '
1,
#485
0,
#486
b0100011 %
b0101100 '
1,
#487
0,
#488
b1000110 %
b0101011 '
1,
#489
0,
#490
b0001100 %
b0101010 '
1,
#491
0,
#492
b0011001 %
b0101001 '
1,
#493
0,
#494
b0110010 %
b0101000 '
1,
#495
0,
#496
b1100100 %
b0100111 '
1,
#497
0,
#498
b1001000 %
b0100110 '
1,
#499
0,
#500
b0010001 %
b0100101 '
1,
#501
0,
#502
b0100010 %
b0100100 '
1,
#503
0,
#504
b1000100 %
b0100011 '
1,
#505
0,
#506
b0001000 %
b0100010 '
1,
#507
0,
#508
b0010000 %
b0100001 '
1,
#509
0,
#510
b0100000 %
b0100000 '
1,
#511
0,
#512
b1000000 %
b0011111 '
1,
#513
0,
#514
b0000001 %
b0011110 '
1,
#515
0,
#516
b0000010 %
b0011101 '
1,
#517
0,
#518
b0000100 %
b0011100 '
1,
#519
0,
#520
b0001001 %
b0011011 '
1,
#521
0,
#522
b0010010 %
b0011010 '
1,
#523
0,
#524
b0100100 %
b0011001 '
1,
#525
0,
#526
b1001001 %
b0011000 '
1,
#527
0,
#528
b0010011 %
b0010111 '
1,
#529
0,
#530
b0100110 %
b0010110 '
1,
#531
0,
#532
b1001101 %
b0010101 '
1,
#533
0,
#534
b0011010 %
b0010100 '
1,
#535
0,
#536
b0110100 %
b0010011 '
1,
#537
0,
#538
b1101001 %
b0010010 '
1,
#539
0,
#540
b1010011 %
b0010001 '
1,
#541
0,
#542
b0100111 %
b0010000 '
1,
#543
0,
#544
b1001111 %
b0001111 '
1,
#545
0,
#546
b0011110 %
b0001110 '
1,
#547
0,
#548
b0111101 %
b0001101 '
1,
#549
0,
#550
b1111011 %
b0001100 '
1,
#551
0,
#552
b1110111 %
b0001011 '
1,
#553
0,
#554
b1101110 %
b0001010 '
1,
#555
0,
#556
b1011100 %
b0001001 '
1,
#557
0,
#558
b0111000 %
b0001000 '
1,
#559
0,
#560
b1110000 %
b0000111 '
1,
#561
0,
#562
b1100001 %
b0000110 '
1,
#563
0,
#564
b1000011 %
b0000101 '
1,
#565
0,
#566
b0000111 %
b0000100 '
1,
#567
0,
#568
b0001111 %
b0000011 '
1,
#569
0,
#570
b0011111 %
b0000010 '
1,
#571
0,
#572
b0111111 %
b0000001 '
1,
#573
0,
#574
b1111111 %
b0000000 '
1,
#575
0,
#576
b1111110 %
b1111110 '
1,
#577
0,
#578
b1111100 %
b1111101 '
1,
#579
0,
#580
b1111000 %
b1111100 '
1,
#581
0,
#582
b1110001 %
b1111011 '
1,
#583
0,
#584
b1100011 %
b1111010 '
1,
#585
0,
#586
b1000111 %
b1111001 '
1,
#587
0,
#588
b0001110 %
b1111000 '
1,
#589
0,
#590
b0011101 %
b1110111 '
1,
#591
0,
#592
b0111011 %
b1110110 '
1,
#593
0,
#594
b1110110 %
b1110101 '
1,
#595
0,
#596
b1101100 %
b1110100 '
1,
#597
0,
#598
b1011000 %
b1110011 '
1,
#599
0,
#600
b0110001 %
b1110010 '
1,
#601
0,
#602
b1100010 %
b1110001 '
1,
#603
0,
#604
b1000101 %
b1110000 '
1,
#605
0,
#606
b0001010 %
b1101111 '
1,
#607
0,
#608
b0010100 %
b1101110 '
1,
#609
0,
#610
b0101001 %
b1101101 '
1,
#611
0,
#612
b1010010 %
b1101100 '
1,
#613
0,
#614
b0100101 %
b1101011 '
1,
#615
0,
#616
b1001011 %
b1101010 '
1,
#617
0,
#618
b0010111 %
b1101001 '
1,
#619
0,
#620
b0101111 %
b1101000 '
1,
#621
0,
#622
b1011111 %
b1100111 '
1,
#623
0,
#624
b0111110 %
b1100110 '
1,
1.
#625
0,
b00000000000000000000000000000001 4
#626
b1111101 %
b1100101 '
1)
b00000000000000000000000000000001 +
1,
0.
b00000001 0
#627
0,
#628
1#
b1111010 %
b0000000000000001 &
b1100100 '
1,
12
b00000000000000000000000000000010 4
#629
0,
#630
0#
b1110101 %
b0000000000000000 &
b1100011 '
b00000000000000000000000000000010 +
1,
b00000011 0
02
#631
0,
#632
1#
b1101010 %
b0000000000000001 &
b1100010 '
1,
12
b00000000000000000000000000000011 4
#633
0,
#634
0#
b1010101 %
b0000000000000000 &
b1100001 '
b00000000000000000000000000000011 +
1,
b00000111 0
02
#635
0,
#636
1#
b0101010 %
b0000000000000001 &
b1100000 '
1,
12
b00000000000000000000000000000100 4
#637
0,
#638
0#
b1010100 %
b0000000000000000 &
b1011111 '
b00000000000000000000000000000100 +
1,
b00001111 0
02
#639
0,
#640
1#
b0101000 %
b0000000000000001 &
b1011110 '
1,
12
b00000000000000000000000000000101 4
#641
0,
#642
0#
b1010000 %
b0000000000000000 &
b1011101 '
b00000000000000000000000000000101 +
1,
b00011111 0
02
#643
0,
#644
1#
b0100001 %
b0000000000000001 &
b1011100 '
1,
12
b00000000000000000000000000000110 4
#645
0,
#646
0#
b1000010 %
b0000000000000000 &
b1011011 '
b00000000000000000000000000000110 +
1,
b00111111 0
02
#647
0,
#648
1#
b0000101 %
b0000000000000001 &
b1011010 '
1,
12
b00000000000000000000000000000111 4
#649
0,
#650
0#
b0001011 %
b0000000000000000 &
b1011001 '
b00000000000000000000000000000111 +
1,
b01111111 0
02
#651
0,
#652
1#
b0010110 %
b0000000000000001 &
b1011000 '
1,
12
b00000000000000000000000000001000 4
#653
0,
#654
0#
b0101101 %
b0000000000000000 &
b1010111 '
b00000000000000000000000000001000 +
1,
b11111111 0
02
#655
0,
#656
1#
b1011011 %
b0000000000000001 &
b1010110 '
1,
12
b00000000000000000000000000001001 4
#657
0,
#658
0#
b0110111 %
b0000000000000000 &
b1010101 '
0)
1*
b00000000000000000000000000001001 +
1,
02
b00000000000000000000000000000001 3
#659
0,
#660
b1101111 %
b0110110 '
b00000000000000000000000000000001 (
1,
#661
0,
#662
b1011110 %
b1101110 '
1,
#663
0,
#664
b0111100 %
b1011101 '
1,
#665
0,
#666
b1111001 %
b0111011 '
1,
#667
0,
#668
b1110011 %
b1111000 '
1,
#669
0,
#670
b1100111 %
b1110010 '
1,
#671
0,
#672
b1001110 %
b1100110 '
1,
#673
0,
#674
b0011100 %
b1001101 '
1,
#675
0,
#676
b0111001 %
b0011011 '
1,
#677
0,
#678
b1110010 %
b0111000 '
1,
#679
0,
#680
b1100101 %
b1110001 '
1,
#681
0,
#682
b1001010 %
b1100100 '
1,
#683
0,
#684
b0010101 %
b1001001 '
1,
#685
0,
#686
b0101011 %
b0010100 '
1,
#687
0,
#688
b1010110 %
b0101010 '
1,
#689
0,
#690
b0101100 %
b1010101 '
1,
#691
0,
#692
b1011001 %
b0101011 '
1,
#693
0,
#694
b0110011 %
b1011000 '
1,
#695
0,
#696
b1100110 %
b0110010 '
1,
#697
0,
#698
b1001100 %
b1100101 '
1,
#699
0,
#700
b0011000 %
b1001011 '
1,
#701
0,
#702
b0110000 %
b0010111 '
1,
#703
0,
#704
b1100000 %
b0101111 '
1,
#705
0,
#706
b1000001 %
b1011111 '
1,
#707
0,
#708
b0000011 %
b1000000 '
1,
#709
0,
#710
b0000110 %
b0000010 '
1,
#711
0,
#712
b0001101 %
b0000101 '
1,
#713
0,
#714
b0011011 %
b0001100 '
1,
#715
0,
#716
b0110110 %
b0011010 '
1,
#717
0,
#718
b1101101 %
b0110101 '
1,
#719
0,
#720
b1011010 %
b1101100 '
1,
#721
0,
#722
b0110101 %
b1011001 '
1,
#723
0,
#724
b1101011 %
b0110100 '
1,
#725
0,
#726
b1010111 %
b1101010 '
1,
#727
0,
#728
b0101110 %
b1010110 '
1,
#729
0,
#730
b1011101 %
b0101101 '
1,
#731
0,
#732
b0111010 %
b1011100 '
1,
#733
0,
#734
b1110100 %
b0111001 '
1,
#735
0,
#736
b1101000 %
b1110011 '
1,
#737
0,
#738
b1010001 %
b1100111 '
1,
#739
0,
#740
b0100011 %
b1010000 '
1,
#741
0,
#742
b1000110 %
b0100010 '
1,
#743
0,
#744
b0001100 %
b1000101 '
1,
#745
0,
#746
b0011001 %
b0001011 '
1,
#747
0,
#748
b0110010 %
b0011000 '
1,
#749
0,
#750
b1100100 %
b0110001 '
1,
#751
0,
#752
b1001000 %
b1100011 '
1,
#753
0,
#754
b0010001 %
b1000111 '
1,
#755
0,
#756
b0100010 %
b0010000 '
1,
#757
0,
#758
b1000100 %
b0100001 '
1,
#759
0,
#760
b0001000 %
b1000011 '
1,
#761
0,
#762
b0010000 %
b0000111 '
1,
#763
0,
#764
b0100000 %
b0001111 '
1,
#765
0,
#766
b1000000 %
b0011111 '
1,
#767
0,
#768
b0000001 %
b0111111 '
1,
#769
0,
#770
b0000010 %
b0000000 '
1,
b00000000000000000000000000000010 3
#771
0,
#772
1$
b0000100 %
b0000001 '
b00000000000000000000000000000010 (
1,
11
12
b00000000000000000000000000000011 3
b00000000000000000000000000001010 4
#773
0,
#774
0$
b0001001 %
b0000011 '
b00000000000000000000000000000011 (
0*
b00000000000000000000000000001010 +
1,
b00000000 0
01
02
b00000000000000000000000000000000 3
#775
0,
#776
b0010010 %
b0000010 '
b00000000000000000000000000000000 (
1,
#777
0,
#778
b0100100 %
b0000001 '
1,
#779
0,
#780
b1001001 %
b0000000 '
1,
#781
0,
#782
b0010011 %
b1001000 '
1,
#783
0,
#784
b0100110 %
b1000111 '
1,
#785
0,
#786
b1001101 %
b1000110 '
1,
#787
0,
#788
b0011010 %
b1000101 '
1,
#789
0,
#790
b0110100 %
b1000100 '
1,
#791
0,
#792
b1101001 %
b1000011 '
1,
1.
#793
0,
b00000000000000000000000000001011 4
#794
b1010011 %
b1000010 '
b00000000000000000000000000001011 +
1,
0.
b00000000000000000000000000000000 4
#795
0,
#796
b0100111 %
b1000001 '
b00000000000000000000000000000000 +
1,
#797
0,
#798
b1001111 %
b1000000 '
1,
#799
0,
#800
b0011110 %
b0111111 '
1,
#801
0,
#802
b0111101 %
b0111110 '
1,
#803
0,
#804
b1111011 %
b0111101 '
1,
#805
0,
#806
b1110111 %
b0111100 '
1,
#807
0,
#808
b1101110 %
b0111011 '
1,
#809
0,
#810
b1011100 %
b0111010 '
1,
#811
0,
#812
b0111000 %
b0111001 '
1,
#813
0,
#814
b1110000 %
b0111000 '
1,
#815
0,
#816
b1100001 %
b0110111 '
1,
#817
0,
#818
b1000011 %
b0110110 '
1,
#819
0,
#820
b0000111 %
b0110101 '
1,
#821
0,
#822
b0001111 %
b0110100 '
1,
#823
0,
#824
b0011111 %
b0110011 '
1,
#825
0,
#826
b0111111 %
b0110010 '
1,
#827
0,
#828
b1111111 %
b0110001 '
1,
#829
0,
#830
b1111110 %
b0110000 '
1,
#831
0,
#832
b1111100 %
b0101111 '
1,
#833
0,
#834
b1111000 %
b0101110 '
1,
#835
0,
#836
b1110001 %
b0101101 '
1,
#837
0,
#838
b1100011 %
b0101100 '
1,
#839
0,
#840
b1000111 %
b0101011 '
1,
#841
0,
#842
b0001110 %
b0101010 '
1,
#843
0,
#844
b0011101 %
b0101001 '
1,
#845
0,
#846
b0111011 %
b0101000 '
1,
#847
0,
#848
b1110110 %
b0100111 '
1,
#849
0,
#850
b1101100 %
b0100110 '
1,
#851
0,
#852
b1011000 %
b0100101 '
1,
#853
0,
#854
b0110001 %
b0100100 '
1,
#855
0,
#856
b1100010 %
b0100011 '
1,
#857
0,
#858
b1000101 %
b0100010 '
1,
#859
0,
#860
b0001010 %
b0100001 '
1,
#861
0,
#862
b0010100 %
b0100000 '
1,
#863
0,
#864
b0101001 %
b0011111 '
1,
#865
0,
#866
b1010010 %
b0011110 '
1,
#867
0,
#868
b0100101 %
b0011101 '
1,
#869
0,
#870
b1001011 %
b0011100 '
1,
#871
0,
#872
b0010111 %
b0011011 '
1,
#873
0,
#874
b0101111 %
b0011010 '
1,
#875
0,
#876
b1011111 %
b0011001 '
1,
#877
0,
#878
b0111110 %
b0011000 '
1,
#879
0,
#880
b1111101 %
b0010111 '
1,
#881
0,
#882
b1111010 %
b0010110 '
1,
#883
0,
#884
b1110101 %
b0010101 '
1,
#885
0,
#886
b1101010 %
b0010100 '
1,
#887
0,
#888
b1010101 %
b0010011 '
1,
#889
0,
#890
b0101010 %
b0010010 '
1,
#891
0,
#892
b1010100 %
b0010001 '
1,
#893
0,
#894
b0101000 %
b0010000 '
1,
#895
0,
#896
b1010000 %
b0001111 '
1,
#897
0,
#898
b0100001 %
b0001110 '
1,
#899
0,
#900
b1000010 %
b0001101 '
1,
#901
0,
#902
b0000101 %
b0001100 '
1,
#903
0,
#904
b0001011 %
b0001011 '
1,
#905
0,
#906
b0010110 %
b0001010 '
1,
#907
0,
#908
b0101101 %
b0001001 '
1,
#909
0,
#910
b1011011 %
b0001000 '
1,
#911
0,
#912
b0110111 %
b0000111 '
1,
#913
0,
#914
b1101111 %
b0000110 '
1,
#915
0,
#916
b1011110 %
b0000101 '
1,
#917
0,
#918
b0111100 %
b0000100 '
1,
#919
0,
#920
b1111001 %
b0000011 '
1,
#921
0,
#922
b1110011 %
b0000010 '
1,
#923
0,
#924
b1100111 %
b0000001 '
1,
#925
0,
#926
b1001110 %
b0000000 '
1,
#927
0,
#928
b0011100 %
b1001101 '
1,
#929
0,
#930
b0111001 %
b1001100 '
1,
#931
0,
#932
b1110010 %
b1001011 '
1,
#933
0,
#934
b1100101 %
b1001010 '
1,
#935
0,
#936
b1001010 %
b1001001 '
1,
#937
0,
#938
b0010101 %
b1001000 '
1,
#939
0,
